%YAML 1.1
%TAG !u! tag:unity3d.com,2011:
--- !u!1 &2563604090186539213
GameObject:
  m_ObjectHideFlags: 0
  m_CorrespondingSourceObject: {fileID: 0}
  m_PrefabInstance: {fileID: 0}
  m_PrefabAsset: {fileID: 0}
  serializedVersion: 6
  m_Component:
  - component: {fileID: 2563604090186539203}
  - component: {fileID: 4778807484167230609}
  m_Layer: 0
  m_Name: BigBallPool_OnePattern1
  m_TagString: BigBallOnePatternPool
  m_Icon: {fileID: 0}
  m_NavMeshLayer: 0
  m_StaticEditorFlags: 0
  m_IsActive: 1
--- !u!4 &2563604090186539203
Transform:
  m_ObjectHideFlags: 0
  m_CorrespondingSourceObject: {fileID: 0}
  m_PrefabInstance: {fileID: 0}
  m_PrefabAsset: {fileID: 0}
  m_GameObject: {fileID: 2563604090186539213}
  m_LocalRotation: {x: 0, y: 0, z: 0, w: 1}
  m_LocalPosition: {x: -288.8061, y: 2.5047038, z: 837.7533}
  m_LocalScale: {x: 1, y: 1, z: 1}
  m_Children: []
  m_Father: {fileID: 0}
  m_RootOrder: 0
  m_LocalEulerAnglesHint: {x: 0, y: 0, z: 0}
--- !u!114 &4778807484167230609
MonoBehaviour:
  m_ObjectHideFlags: 0
  m_CorrespondingSourceObject: {fileID: 0}
  m_PrefabInstance: {fileID: 0}
  m_PrefabAsset: {fileID: 0}
  m_GameObject: {fileID: 2563604090186539213}
  m_Enabled: 1
  m_EditorHideFlags: 0
  m_Script: {fileID: 11500000, guid: ec423d4bcaced6d4fb1e7028a6a65752, type: 3}
  m_Name: 
  m_EditorClassIdentifier: 
  bigBall:
  - {fileID: 1446733041464949441, guid: 4d1ee2b482c383a49ad438d3d1b33c7d, type: 3}
  initailSize: 100
