%YAML 1.1
%TAG !u! tag:unity3d.com,2011:
--- !u!21 &2100000
Material:
  serializedVersion: 6
  m_ObjectHideFlags: 0
  m_CorrespondingSourceObject: {fileID: 0}
  m_PrefabInstance: {fileID: 0}
  m_PrefabAsset: {fileID: 0}
  m_Name: particle4
  m_Shader: {fileID: 4800000, guid: 2b3ae819464f4d24ba825c055641bdbe, type: 3}
  m_ShaderKeywords: 
  m_LightmapFlags: 4
  m_EnableInstancingVariants: 0
  m_DoubleSidedGI: 0
  m_CustomRenderQueue: -1
  stringTagMap: {}
  disabledShaderPasses: []
  m_SavedProperties:
    serializedVersion: 3
    m_TexEnvs:
    - _MainTex:
        m_Texture: {fileID: 2800000, guid: f3ecb3f4be6b63f4e98f8c9d4bfd4dc7, type: 3}
        m_Scale: {x: 1, y: 1}
        m_Offset: {x: 0, y: 0}
    - _base_texture:
        m_Texture: {fileID: 0}
        m_Scale: {x: 1, y: 1}
        m_Offset: {x: 0, y: 0}
    m_Floats:
    - _Cutoff: 0.5
    - _node_1493: 0.08547009
    - _node_4633: 0.05
    - _node_9312: 0.4444447
    - _outline_range: 0.07692308
    m_Colors:
    - _TintColor: {r: 1.6015819, g: 2.1839461, b: 6.6575565, a: 1}
    - _base_color: {r: 1, g: 1, b: 1, a: 1}
    - _outline_color: {r: 1, g: 0, b: 0, a: 1}
